{
  "$schema": "http://json-schema/org/draft-03/hyper-schema",
  "description": "Get all of the food truck names. By name we mean the set of food trucks with the same name",
  "name": "event_list_response",
  "properties": {
    "events": {
      "type": "array",
      "items": {
        "$ref": "event.json"
      },
      "description": "List of all upcoming events"
    }
  },
  "type": "object"
}
