{
  "$schema": "http://json-schema/org/draft-03/hyper-schema",
  "description": "",
  "name": "truck_tuple_detail_response",
  "properties": {
    "truck_tuple": {
      "$ref": "truck_tuple.json",
      "description": "food truck name"
    },
    "reviews": {
      "type": "array",
      "items": {
        "$ref": "truck_review.json"
      },
      "description": "List of all food truck ids"
    }
  },
  "type": "object"
}
